sdmTMB lab: index standardization
…
Model predictions

Our goal is to generate an abundance index that approximates the design-based index for legal male hair crab. The model-based index in the NMFS EBS survey report is produced for the full Eastern Bering Sea. Therefore, there is no need to filter our prediction data frame prior to using it as newdata in sdmTMB::predict - we’ve already trimmed the prediction grid to the area of the EBS that overlaps with where hair crab occur. return_tmb_object = TRUE is required for passing predictions to the get_index function for index calculation.

model_predictions_df <- predict(m1.2, newdata = pred_df, type = "link",
                                return_tmb_object = TRUE) 
model_predictions_df$data

# A tibble: 12,340 × 10
      id   area  year longitude latitude    est est_non_rf est_rf omega_s
   <int>  <dbl> <int>     <dbl>    <dbl>  <dbl>      <dbl>  <dbl>   <dbl>
 1     1 0.0540  2014     -605.     596.  0.886     -0.178  1.06    0.543
 2     1 0.0540  2015     -605.     596. -0.230     -0.822  0.591   0.543
 3     1 0.0540  2016     -605.     596. -1.22      -1.62   0.398   0.543
 4     1 0.0540  2017     -605.     596. -0.453     -1.12   0.662   0.543
 5     1 0.0540  2018     -605.     596. -0.927     -1.29   0.358   0.543
 6     1 0.0540  2019     -605.     596. -1.28      -1.87   0.595   0.543
 7     1 0.0540  2021     -605.     596. -1.60      -2.06   0.464   0.543
 8     1 0.0540  2022     -605.     596. -1.57      -2.03   0.456   0.543
 9     1 0.0540  2023     -605.     596. -1.47      -1.89   0.426   0.543
10     1 0.0540  2024     -605.     596. -0.865     -1.38   0.520   0.543
# ℹ 12,330 more rows
# ℹ 1 more variable: epsilon_st <dbl>
…
